…
      Repeat
      The number of dosing

    Value

    The dataset of concentration and time of simulated subjects of multiple dosing

    See also

    https://asancpt.github.io/caffsim

    Examples

caffConcTimeMulti(Weight = 20, Dose = 200, N = 20, Tau = 8, Repeat = 4)
#> # A tibble: 9,620 x 3
#> # Groups:   Subject [20]
#>    Subject  Time     Conc
#>      <dbl> <dbl>    <dbl>
#>  1       1   0.0 0.000000
#>  2       1   0.2 9.892721
#>  3       1   0.4 9.625438
#>  4       1   0.6 9.352134
#>  5       1   0.8 9.086573
#>  6       1   1.0 8.828552
#>  7       1   1.2 8.577857
#>  8       1   1.4 8.334282
#>  9       1   1.6 8.097623
#> 10       1   1.8 7.867684
#> # ... with 9,610 more rows
caffConcTimeMulti(20, 200)
#> # A tibble: 9,620 x 3
#> # Groups:   Subject [20]
#>    Subject  Time      Conc
#>      <dbl> <dbl>     <dbl>
#>  1       1   0.0  0.000000
#>  2       1   0.2  5.556672
#>  3       1   0.4  9.535670
#>  4       1   0.6 12.349859
#>  5       1   0.8 14.304842
#>  6       1   1.0 15.626806
#>  7       1   1.2 16.483139
#>  8       1   1.4 16.997703
#>  9       1   1.6 17.262127
#> 10       1   1.8 17.344186
#> # ... with 9,610 more rows
…
